%YAML 1.1
%TAG !u! tag:unity3d.com,2011:
--- !u!1001 &1442417227155036985
PrefabInstance:
  m_ObjectHideFlags: 0
  serializedVersion: 2
  m_Modification:
    m_TransformParent: {fileID: 0}
    m_Modifications:
    - target: {fileID: -927199367670048503, guid: bc83dfa984a689749b94406d47d3cef0,
        type: 3}
      propertyPath: m_Name
      value: j1np
      objectReference: {fileID: 0}
    - target: {fileID: -4216859302048453862, guid: bc83dfa984a689749b94406d47d3cef0,
        type: 3}
      propertyPath: m_LocalPosition.x
      value: 2.8
      objectReference: {fileID: 0}
    - target: {fileID: -4216859302048453862, guid: bc83dfa984a689749b94406d47d3cef0,
        type: 3}
      propertyPath: m_LocalPosition.y
      value: 1
      objectReference: {fileID: 0}
    - target: {fileID: -4216859302048453862, guid: bc83dfa984a689749b94406d47d3cef0,
        type: 3}
      propertyPath: m_LocalPosition.z
      value: -21.5
      objectReference: {fileID: 0}
    - target: {fileID: -4216859302048453862, guid: bc83dfa984a689749b94406d47d3cef0,
        type: 3}
      propertyPath: m_LocalRotation.x
      value: 0
      objectReference: {fileID: 0}
    - target: {fileID: -4216859302048453862, guid: bc83dfa984a689749b94406d47d3cef0,
        type: 3}
      propertyPath: m_LocalRotation.y
      value: 0.7071068
      objectReference: {fileID: 0}
    - target: {fileID: -4216859302048453862, guid: bc83dfa984a689749b94406d47d3cef0,
        type: 3}
      propertyPath: m_LocalRotation.z
      value: 0.7071068
      objectReference: {fileID: 0}
    - target: {fileID: -4216859302048453862, guid: bc83dfa984a689749b94406d47d3cef0,
        type: 3}
      propertyPath: m_LocalRotation.w
      value: 0
      objectReference: {fileID: 0}
    - target: {fileID: -4216859302048453862, guid: bc83dfa984a689749b94406d47d3cef0,
        type: 3}
      propertyPath: m_RootOrder
      value: 0
      objectReference: {fileID: 0}
    - target: {fileID: -4216859302048453862, guid: bc83dfa984a689749b94406d47d3cef0,
        type: 3}
      propertyPath: m_LocalEulerAnglesHint.x
      value: -90
      objectReference: {fileID: 0}
    - target: {fileID: -4216859302048453862, guid: bc83dfa984a689749b94406d47d3cef0,
        type: 3}
      propertyPath: m_LocalEulerAnglesHint.y
      value: 0
      objectReference: {fileID: 0}
    - target: {fileID: -4216859302048453862, guid: bc83dfa984a689749b94406d47d3cef0,
        type: 3}
      propertyPath: m_LocalEulerAnglesHint.z
      value: 180
      objectReference: {fileID: 0}
    - target: {fileID: -4216859302048453862, guid: bc83dfa984a689749b94406d47d3cef0,
        type: 3}
      propertyPath: m_LocalScale.x
      value: 25
      objectReference: {fileID: 0}
    - target: {fileID: -4216859302048453862, guid: bc83dfa984a689749b94406d47d3cef0,
        type: 3}
      propertyPath: m_LocalScale.y
      value: 25
      objectReference: {fileID: 0}
    - target: {fileID: -4216859302048453862, guid: bc83dfa984a689749b94406d47d3cef0,
        type: 3}
      propertyPath: m_LocalScale.z
      value: 25
      objectReference: {fileID: 0}
    m_RemovedComponents: []
  m_SourcePrefab: {fileID: 100100000, guid: bc83dfa984a689749b94406d47d3cef0, type: 3}
